{
	"info": {
		"_postman_id": "a5ff7a67-8f6c-4ff3-992e-a53b834b877a",
		"name": "Customer API",
		"description": "Coleção de testes para a API de clientes.",
		"schema": "https://schema.getpostman.com/json/collection/v2.1.0/collection.json"
	},
	"item": [
		{
			"name": "Inserir Cliente",
			"request": {
				"method": "POST",
				"header": [],
				"body": {
					"mode": "raw",
					"raw": "{\r\n    \"name\": \"Marcos Mendes Silveira\",\r\n    \"cpf\": \"66223209002\",\r\n    \"birthDate\": \"1994-05-10\"\r\n}",
					"options": {
						"raw": {
							"language": "json"
						}
					}
				},
				"url": {
					"raw": "localhost:8000/customers",
					"host": [
						"localhost"
					],
					"port": "8000",
					"path": [
						"customers"
					]
				},
				"description": "Realiza a inserção de um cliente na base de dados."
			},
			"response": [
				{
					"name": "Inserir Cliente (ERROR)",
					"originalRequest": {
						"method": "POST",
						"header": [],
						"body": {
							"mode": "raw",
							"raw": "{\r\n    \"birthDate\": \"1994-05-10\"\r\n}",
							"options": {
								"raw": {
									"language": "json"
								}
							}
						},
						"url": {
							"raw": "localhost:8000/customers",
							"host": [
								"localhost"
							],
							"port": "8000",
							"path": [
								"customers"
							]
						}
					},
					"status": "Bad Request",
					"code": 400,
					"_postman_previewlanguage": "json",
					"header": [
						{
							"key": "Content-Type",
							"value": "application/json"
						},
						{
							"key": "Transfer-Encoding",
							"value": "chunked"
						},
						{
							"key": "Date",
							"value": "Mon, 16 Nov 2020 05:18:18 GMT"
						},
						{
							"key": "Connection",
							"value": "close"
						}
					],
					"cookie": [],
					"body": "[\n    {\n        \"message\": \"Campo obrigatório não informado.\",\n        \"field\": \"name\"\n    },\n    {\n        \"message\": \"Campo obrigatório não informado.\",\n        \"field\": \"cpf\"\n    },\n    {\n        \"message\": \"O CPF informado não é válido.\",\n        \"field\": \"cpf\"\n    }\n]"
				},
				{
					"name": "Inserir Cliente",
					"originalRequest": {
						"method": "POST",
						"header": [],
						"body": {
							"mode": "raw",
							"raw": "{\r\n    \"name\": \"Marcos Mendes Silveira\",\r\n    \"cpf\": \"66223209002\",\r\n    \"birthDate\": \"1994-05-10\"\r\n}",
							"options": {
								"raw": {
									"language": "json"
								}
							}
						},
						"url": {
							"raw": "localhost:8000/customers",
							"host": [
								"localhost"
							],
							"port": "8000",
							"path": [
								"customers"
							]
						}
					},
					"status": "Created",
					"code": 201,
					"_postman_previewlanguage": "json",
					"header": [
						{
							"key": "Location",
							"value": "http://localhost:8000/customers/76fe9155-9f9b-450e-86c2-d7ca8fd55f0d"
						},
						{
							"key": "Content-Type",
							"value": "application/json"
						},
						{
							"key": "Transfer-Encoding",
							"value": "chunked"
						},
						{
							"key": "Date",
							"value": "Mon, 16 Nov 2020 05:12:31 GMT"
						},
						{
							"key": "Keep-Alive",
							"value": "timeout=60"
						},
						{
							"key": "Connection",
							"value": "keep-alive"
						}
					],
					"cookie": [],
					"body": "{\n    \"id\": \"76fe9155-9f9b-450e-86c2-d7ca8fd55f0d\",\n    \"name\": \"Marcos Mendes Silveira\",\n    \"cpf\": \"66223209002\",\n    \"birthDate\": \"1994-05-10\",\n    \"age\": 26\n}"
				}
			]
		},
		{
			"name": "Recuperar cliente por ID",
			"protocolProfileBehavior": {
				"disableBodyPruning": true
			},
			"request": {
				"method": "GET",
				"header": [],
				"body": {
					"mode": "raw",
					"raw": "{\r\n    \"name\": \"Samuel Mendes\",\r\n    \"cpf\": \"222\",\r\n    \"birthDate\": \"2020-10-10\"\r\n}",
					"options": {
						"raw": {
							"language": "json"
						}
					}
				},
				"url": {
					"raw": "localhost:8000/customers/76fe9155-9f9b-450e-86c2-d7ca8fd55f0d",
					"host": [
						"localhost"
					],
					"port": "8000",
					"path": [
						"customers",
						"76fe9155-9f9b-450e-86c2-d7ca8fd55f0d"
					]
				},
				"description": "Recupera as informações de um cliente na base de dados, de acordo com o ID informado."
			},
			"response": [
				{
					"name": "Recuperar cliente por ID (ERROR)",
					"originalRequest": {
						"method": "GET",
						"header": [],
						"body": {
							"mode": "raw",
							"raw": "{\r\n    \"name\": \"Samuel Mendes\",\r\n    \"cpf\": \"222\",\r\n    \"birthDate\": \"2020-10-10\"\r\n}",
							"options": {
								"raw": {
									"language": "json"
								}
							}
						},
						"url": {
							"raw": "localhost:8000/customers/76fe9155-9f9b-450e-86c2-d7cd8fd55f0d",
							"host": [
								"localhost"
							],
							"port": "8000",
							"path": [
								"customers",
								"76fe9155-9f9b-450e-86c2-d7cd8fd55f0d"
							]
						}
					},
					"status": "Not Found",
					"code": 404,
					"_postman_previewlanguage": "plain",
					"header": [
						{
							"key": "Content-Type",
							"value": "text/plain;charset=UTF-8"
						},
						{
							"key": "Content-Length",
							"value": "24"
						},
						{
							"key": "Date",
							"value": "Mon, 16 Nov 2020 05:20:33 GMT"
						},
						{
							"key": "Keep-Alive",
							"value": "timeout=60"
						},
						{
							"key": "Connection",
							"value": "keep-alive"
						}
					],
					"cookie": [],
					"body": "Cliente não encontrado."
				},
				{
					"name": "Recuperar cliente por ID",
					"originalRequest": {
						"method": "GET",
						"header": [],
						"body": {
							"mode": "raw",
							"raw": "{\r\n    \"name\": \"Samuel Mendes\",\r\n    \"cpf\": \"222\",\r\n    \"birthDate\": \"2020-10-10\"\r\n}",
							"options": {
								"raw": {
									"language": "json"
								}
							}
						},
						"url": {
							"raw": "localhost:8000/customers/76fe9155-9f9b-450e-86c2-d7ca8fd55f0d",
							"host": [
								"localhost"
							],
							"port": "8000",
							"path": [
								"customers",
								"76fe9155-9f9b-450e-86c2-d7ca8fd55f0d"
							]
						}
					},
					"status": "OK",
					"code": 200,
					"_postman_previewlanguage": "json",
					"header": [
						{
							"key": "Content-Type",
							"value": "application/json"
						},
						{
							"key": "Transfer-Encoding",
							"value": "chunked"
						},
						{
							"key": "Date",
							"value": "Mon, 16 Nov 2020 05:14:19 GMT"
						},
						{
							"key": "Keep-Alive",
							"value": "timeout=60"
						},
						{
							"key": "Connection",
							"value": "keep-alive"
						}
					],
					"cookie": [],
					"body": "{\n    \"id\": \"76fe9155-9f9b-450e-86c2-d7ca8fd55f0d\",\n    \"name\": \"Marcos Mendes da Silveira\",\n    \"cpf\": \"66223209002\",\n    \"birthDate\": \"1994-05-10\",\n    \"age\": 26\n}"
				}
			]
		},
		{
			"name": "Atualizar Cliente",
			"request": {
				"method": "PUT",
				"header": [],
				"body": {
					"mode": "raw",
					"raw": "{\r\n    \"name\": \"Marcos Mendes da Silveira\",\r\n    \"cpf\": \"66223209002\",\r\n    \"birthDate\": \"1994-05-10\"\r\n}",
					"options": {
						"raw": {
							"language": "json"
						}
					}
				},
				"url": {
					"raw": "localhost:8000/customers/76fe9155-9f9b-450e-86c2-d7ca8fd55f0d",
					"host": [
						"localhost"
					],
					"port": "8000",
					"path": [
						"customers",
						"76fe9155-9f9b-450e-86c2-d7ca8fd55f0d"
					]
				},
				"description": "Realiza a alteração de um cliente na base de dados."
			},
			"response": [
				{
					"name": "Atualizar Cliente",
					"originalRequest": {
						"method": "PUT",
						"header": [],
						"body": {
							"mode": "raw",
							"raw": "{\r\n    \"name\": \"Marcos Mendes da Silveira\",\r\n    \"cpf\": \"66223209002\",\r\n    \"birthDate\": \"1994-05-10\"\r\n}",
							"options": {
								"raw": {
									"language": "json"
								}
							}
						},
						"url": {
							"raw": "localhost:8000/customers/76fe9155-9f9b-450e-86c2-d7ca8fd55f0d",
							"host": [
								"localhost"
							],
							"port": "8000",
							"path": [
								"customers",
								"76fe9155-9f9b-450e-86c2-d7ca8fd55f0d"
							]
						}
					},
					"status": "OK",
					"code": 200,
					"_postman_previewlanguage": "json",
					"header": [
						{
							"key": "Content-Type",
							"value": "application/json"
						},
						{
							"key": "Transfer-Encoding",
							"value": "chunked"
						},
						{
							"key": "Date",
							"value": "Mon, 16 Nov 2020 05:13:35 GMT"
						},
						{
							"key": "Keep-Alive",
							"value": "timeout=60"
						},
						{
							"key": "Connection",
							"value": "keep-alive"
						}
					],
					"cookie": [],
					"body": "{\n    \"id\": \"76fe9155-9f9b-450e-86c2-d7ca8fd55f0d\",\n    \"name\": \"Marcos Mendes da Silveira\",\n    \"cpf\": \"66223209002\",\n    \"birthDate\": \"1994-05-10\",\n    \"age\": 26\n}"
				}
			]
		},
		{
			"name": "Atualizar campos de um Cliente",
			"request": {
				"method": "PATCH",
				"header": [
					{
						"key": "Content-Type",
						"value": "application/json-patch+json",
						"type": "text",
						"disabled": true
					}
				],
				"body": {
					"mode": "raw",
					"raw": "{\r\n    \"birthDate\": null\r\n}",
					"options": {
						"raw": {
							"language": "json"
						}
					}
				},
				"url": {
					"raw": "localhost:8000/customers/76fe9155-9f9b-450e-86c2-d7ca8fd55f0d",
					"host": [
						"localhost"
					],
					"port": "8000",
					"path": [
						"customers",
						"76fe9155-9f9b-450e-86c2-d7ca8fd55f0d"
					]
				},
				"description": "Realiza a alteração de campos específicos de um cliente na base de dados.\r\n\r\n- Informe apenas os campos que devem ser alterados.\r\n- Para alterar o valor de um campo para 'null', defina o campo como null (sem aspas)."
			},
			"response": [
				{
					"name": "Atualizar campos de um Cliente",
					"originalRequest": {
						"method": "PATCH",
						"header": [
							{
								"key": "Content-Type",
								"value": "application/json-patch+json",
								"type": "text",
								"disabled": true
							}
						],
						"body": {
							"mode": "raw",
							"raw": "{\r\n    \"birthDate\": null\r\n}",
							"options": {
								"raw": {
									"language": "json"
								}
							}
						},
						"url": {
							"raw": "localhost:8000/customers/76fe9155-9f9b-450e-86c2-d7ca8fd55f0d",
							"host": [
								"localhost"
							],
							"port": "8000",
							"path": [
								"customers",
								"76fe9155-9f9b-450e-86c2-d7ca8fd55f0d"
							]
						}
					},
					"status": "OK",
					"code": 200,
					"_postman_previewlanguage": "json",
					"header": [
						{
							"key": "Content-Type",
							"value": "application/json"
						},
						{
							"key": "Transfer-Encoding",
							"value": "chunked"
						},
						{
							"key": "Date",
							"value": "Mon, 16 Nov 2020 05:14:50 GMT"
						},
						{
							"key": "Keep-Alive",
							"value": "timeout=60"
						},
						{
							"key": "Connection",
							"value": "keep-alive"
						}
					],
					"cookie": [],
					"body": "{\n    \"id\": \"76fe9155-9f9b-450e-86c2-d7ca8fd55f0d\",\n    \"name\": \"Marcos Mendes da Silveira\",\n    \"cpf\": \"66223209002\",\n    \"birthDate\": null,\n    \"age\": null\n}"
				}
			]
		},
		{
			"name": "Recuperar cliente por nome ou cpf",
			"protocolProfileBehavior": {
				"disableBodyPruning": true
			},
			"request": {
				"method": "GET",
				"header": [],
				"body": {
					"mode": "raw",
					"raw": "{\r\n    \"name\": \"Samuel Mendes\",\r\n    \"cpf\": \"222\",\r\n    \"birthDate\": \"2020-10-10\"\r\n}",
					"options": {
						"raw": {
							"language": "json"
						}
					}
				},
				"url": {
					"raw": "localhost:8000/customers?name=mendes&cpf=22&page=1&size=2",
					"host": [
						"localhost"
					],
					"port": "8000",
					"path": [
						"customers"
					],
					"query": [
						{
							"key": "name",
							"value": "mendes"
						},
						{
							"key": "cpf",
							"value": "22"
						},
						{
							"key": "page",
							"value": "1"
						},
						{
							"key": "size",
							"value": "2"
						}
					]
				},
				"description": "Lista os cliente existentes na base de dados, de acordo com o nome e/ou CPF informados.\r\n\r\n- Caso não sejam informados um nome ou CPF, todos os clientes serão listados.\r\n- Por default, são retornados os primeiros 10 registros da base. Para alterar a paginação, preencha os campos 'page' e 'size'."
			},
			"response": [
				{
					"name": "Recuperar cliente por nome ou cpf",
					"originalRequest": {
						"method": "GET",
						"header": [],
						"body": {
							"mode": "raw",
							"raw": "{\r\n    \"name\": \"Samuel Mendes\",\r\n    \"cpf\": \"222\",\r\n    \"birthDate\": \"2020-10-10\"\r\n}",
							"options": {
								"raw": {
									"language": "json"
								}
							}
						},
						"url": {
							"raw": "localhost:8000/customers?name=mendes&cpf=22&page=1&size=2",
							"host": [
								"localhost"
							],
							"port": "8000",
							"path": [
								"customers"
							],
							"query": [
								{
									"key": "name",
									"value": "mendes"
								},
								{
									"key": "cpf",
									"value": "22"
								},
								{
									"key": "page",
									"value": "1"
								},
								{
									"key": "size",
									"value": "2"
								}
							]
						}
					},
					"status": "OK",
					"code": 200,
					"_postman_previewlanguage": "json",
					"header": [
						{
							"key": "Content-Type",
							"value": "application/json"
						},
						{
							"key": "Transfer-Encoding",
							"value": "chunked"
						},
						{
							"key": "Date",
							"value": "Mon, 16 Nov 2020 05:16:01 GMT"
						},
						{
							"key": "Keep-Alive",
							"value": "timeout=60"
						},
						{
							"key": "Connection",
							"value": "keep-alive"
						}
					],
					"cookie": [],
					"body": "{\n    \"content\": [\n        {\n            \"id\": \"9e7a8789-77c9-4801-9be6-5c1e211b4c35\",\n            \"name\": \"Samuel Mendes\",\n            \"cpf\": \"222\",\n            \"birthDate\": \"2019-10-10\",\n            \"age\": 1\n        },\n        {\n            \"id\": \"069e89e5-2151-40d4-9a2f-7a33f9df953a\",\n            \"name\": \"Samuel Mendes\",\n            \"cpf\": \"222\",\n            \"birthDate\": \"1800-10-10\",\n            \"age\": 220\n        }\n    ],\n    \"pageable\": {\n        \"sort\": {\n            \"sorted\": false,\n            \"unsorted\": true,\n            \"empty\": true\n        },\n        \"offset\": 2,\n        \"pageNumber\": 1,\n        \"pageSize\": 2,\n        \"unpaged\": false,\n        \"paged\": true\n    },\n    \"totalPages\": 3,\n    \"totalElements\": 5,\n    \"last\": false,\n    \"size\": 2,\n    \"number\": 1,\n    \"sort\": {\n        \"sorted\": false,\n        \"unsorted\": true,\n        \"empty\": true\n    },\n    \"numberOfElements\": 2,\n    \"first\": false,\n    \"empty\": false\n}"
				}
			]
		},
		{
			"name": "Remover um cliente",
			"request": {
				"method": "DELETE",
				"header": [],
				"url": {
					"raw": "localhost:8000/customers/76fe9155-9f9b-450e-86c2-d7ca8fd55f0d",
					"host": [
						"localhost"
					],
					"port": "8000",
					"path": [
						"customers",
						"76fe9155-9f9b-450e-86c2-d7ca8fd55f0d"
					]
				},
				"description": "Realiza a exclusão de um cliente na base de dados."
			},
			"response": [
				{
					"name": "Remover um cliente (ERROR)",
					"originalRequest": {
						"method": "DELETE",
						"header": [],
						"url": {
							"raw": "localhost:8000/customers/76fe9155-9f9b-450e-86c2-d7ca8fd55f0d",
							"host": [
								"localhost"
							],
							"port": "8000",
							"path": [
								"customers",
								"76fe9155-9f9b-450e-86c2-d7ca8fd55f0d"
							]
						}
					},
					"status": "Not Found",
					"code": 404,
					"_postman_previewlanguage": "plain",
					"header": [
						{
							"key": "Content-Type",
							"value": "text/plain;charset=UTF-8"
						},
						{
							"key": "Content-Length",
							"value": "24"
						},
						{
							"key": "Date",
							"value": "Mon, 16 Nov 2020 05:16:40 GMT"
						},
						{
							"key": "Keep-Alive",
							"value": "timeout=60"
						},
						{
							"key": "Connection",
							"value": "keep-alive"
						}
					],
					"cookie": [],
					"body": "Cliente não encontrado."
				},
				{
					"name": "Remover um cliente (OK)",
					"originalRequest": {
						"method": "DELETE",
						"header": [],
						"url": {
							"raw": "localhost:8000/customers/76fe9155-9f9b-450e-86c2-d7ca8fd55f0d",
							"host": [
								"localhost"
							],
							"port": "8000",
							"path": [
								"customers",
								"76fe9155-9f9b-450e-86c2-d7ca8fd55f0d"
							]
						}
					},
					"status": "OK",
					"code": 200,
					"_postman_previewlanguage": "plain",
					"header": [
						{
							"key": "Content-Type",
							"value": "text/plain;charset=UTF-8"
						},
						{
							"key": "Content-Length",
							"value": "66"
						},
						{
							"key": "Date",
							"value": "Mon, 16 Nov 2020 05:16:21 GMT"
						},
						{
							"key": "Keep-Alive",
							"value": "timeout=60"
						},
						{
							"key": "Connection",
							"value": "keep-alive"
						}
					],
					"cookie": [],
					"body": "Cliente removido com sucesso: 76fe9155-9f9b-450e-86c2-d7ca8fd55f0d"
				}
			]
		}
	],
	"protocolProfileBehavior": {}
}